Building your own subset • hydrofabric
…
Seeking just the topology of the network would be
impractical/wrong

(filter(net, vpu == wbd$vpu[1]) %>% 
  select(id, toid, divide_id))

## # A tibble: 170,349 × 3
##    id         toid           divide_id  
##    <chr>      <chr>          <chr>      
##  1 wb-3378885 tnx-1000012409 cat-3378885
##  2 wb-3378885 tnx-1000012409 cat-3378885
##  3 wb-3378885 tnx-1000012409 cat-3378885
##  4 wb-3378885 tnx-1000012409 cat-3378885
##  5 wb-3378885 tnx-1000012409 cat-3378885
##  6 wb-3378885 tnx-1000012409 cat-3378885
##  7 wb-3378885 tnx-1000012409 cat-3378885
##  8 wb-3378885 tnx-1000012409 cat-3378885
##  9 wb-3378885 tnx-1000012409 cat-3378885
## 10 wb-3378885 tnx-1000012409 cat-3378885
## # ℹ 170,339 more rows
…
In the case of hydrosequencing, these are unique
id/toid pairs

(wbd_net = filter(net, vpu == wbd$vpu) %>% 
  select(id, toid, divide_id) %>% 
  distinct())

## Warning: There was 1 warning in `filter()`.
## ℹ In argument: `vpu == wbd$vpu`.
## Caused by warning in `vpu == wbd$vpu`:
## ! longer object length is not a multiple of shorter object length

## # A tibble: 65,280 × 3
##    id         toid           divide_id  
##    <chr>      <chr>          <chr>      
##  1 wb-3378885 tnx-1000012409 cat-3378885
##  2 wb-3378890 tnx-1000013027 cat-3378890
##  3 wb-3378892 tnx-1000012410 cat-3378892
##  4 wb-3378895 tnx-1000013028 cat-3378895
##  5 wb-3378974 tnx-1000013029 cat-3378974
##  6 wb-3380350 tnx-1000012411 cat-3380350
##  7 wb-3380601 tnx-1000012412 cat-3380601
##  8 wb-3380616 tnx-1000012414 cat-3380616
##  9 wb-3380617 tnx-1000013030 cat-3380617
## 10 wb-3380618 tnx-1000012415 cat-3380618
## # ℹ 65,270 more rows
…
