Realizations and Views • hydrofabric
…
Defining the network

The exhaustive realization set (e.g identification and
concepts) of a given network are contained in the network
layer. This layer has no spatial information and is the link
between all flowpath, divide, and nexus realizations contained within an
area.

(net = read_sf(f, "network"))

## # A tibble: 1,884 × 15
##    id     toid  divide_id ds_id mainstem hl_id hydroseq hl_uri hf_source   hf_id
##    <chr>  <chr> <chr>     <dbl>    <int> <chr>    <int> <chr>  <chr>       <dbl>
##  1 wb-27… nex-… cat-2786…    NA   352913 788         NA HUC12… NA             NA
##  2 wb-27… nex-… cat-2786…    NA   352913 788      11238 HUC12… NHDPlusV2 2902759
##  3 wb-27… nex-… cat-2786…    NA   352913 788      11238 HUC12… NHDPlusV2 2900301
##  4 wb-27… nex-… cat-2786…    NA   352913 NA          NA NA     NA             NA
##  5 wb-27… nex-… cat-2786…    NA   352913 NA       11247 NA     NHDPlusV2 2900207
##  6 wb-27… nex-… cat-2786…    NA   352913 NA       11247 NA     NHDPlusV2 2900099
##  7 wb-27… nex-… cat-2786…    NA   352913 NA       11247 NA     NHDPlusV2 2900757
##  8 wb-27… nex-… cat-2786…    NA   352913 NA       11247 NA     NHDPlusV2 2900047
##  9 wb-27… nex-… cat-2786…    NA   352913 NA       11247 NA     NHDPlusV2 2900079
## 10 wb-27… nex-… cat-2786…    NA   352913 NA          NA NA     NA             NA
## # ℹ 1,874 more rows
## # ℹ 5 more variables: lengthkm <dbl>, areasqkm <dbl>,
## #   tot_drainage_areasqkm <dbl>, type <chr>, vpu <chr>

Notably, this file carries the full reference
fabric, through manipulation, through data modeling steps. Here we see
the “hf_source” (or reference fabric) was the NHDPlusV2.

The resulting 1884 row table stores the needed information for 420
divides, 590 flowpaths and 342 nexus

If a walk back to the source hf is not needed, a reduced set can be
extracted, for example:

select(net, id, toid, divide_id, hl_uri, vpu, areasqkm) %>% 
  distinct()

## # A tibble: 606 × 6
##    id        toid       divide_id  hl_uri             vpu   areasqkm
##    <chr>     <chr>      <chr>      <chr>              <chr>    <dbl>
##  1 wb-278673 nex-278674 cat-278673 HUC12-101900070201 10L      13.3 
##  2 wb-278675 nex-278676 cat-278675 NA                 10L       7.44
##  3 wb-278676 nex-278677 cat-278676 NA                 10L       8.76
##  4 wb-278679 nex-278680 cat-278679 NA                 10L       4.52
##  5 wb-278680 nex-278681 cat-278680 NA                 10L       8.98
##  6 wb-278681 nex-278682 cat-278681 NA                 10L       6.63
##  7 wb-278682 nex-278683 cat-278682 NA                 10L      11.1 
##  8 wb-278683 nex-278684 cat-278683 NA                 10L       9.96
##  9 wb-278684 nex-278685 cat-278684 NA                 10L       8.61
## 10 wb-278686 nex-278687 cat-278686 NA                 10L      14.7 
## # ℹ 596 more rows
…
To generate the forcing mesh (currently using EMSF) the forcing
workstream needs the divide complex geometries and associated
divide_id of each unit. These can be pulled directly from
the divides layer!

read_sf(f, "divides") %>% 
  select(divide_id) %>% 
  filter(divide_id %in% net$divide_id)

## Simple feature collection with 419 features and 1 field
## Geometry type: MULTIPOLYGON
## Dimension:     XY
## Bounding box:  xmin: -831675 ymin: 1975605 xmax: -759465 ymax: 2061555
## Projected CRS: NAD83 / Conus Albers
## # A tibble: 419 × 2
##    divide_id                                                                geom
##  * <chr>                                                      <MULTIPOLYGON [m]>
##  1 cat-280570 (((-774075 2005635, -774375 2005635, -774345 2005695, -774345 200…
##  2 cat-278676 (((-822075 1993095, -822105 1992825, -822195 1992765, -822375 199…
##  3 cat-278680 (((-818235 2004705, -818265 2004585, -818355 2004585, -818625 200…
##  4 cat-278682 (((-810375 2006985, -810285 2006865, -810015 2006865, -809925 200…
##  5 cat-278683 (((-807825 2008065, -807705 2008005, -807555 2007825, -807495 200…
##  6 cat-278686 (((-794235 2002185, -794295 2002125, -794535 2002125, -794655 200…
##  7 cat-278689 (((-787395 2000865, -787575 2000715, -787575 2000595, -787665 200…
##  8 cat-278692 (((-778785 2002215, -778755 2002395, -778695 2002485, -778695 200…
##  9 cat-278693 (((-773565 1998705, -773625 1998615, -773745 1998585, -773865 199…
## 10 cat-278695 (((-767055 1994895, -767055 1994775, -766965 1994685, -766935 199…
## # ℹ 409 more rows
…
While NextGen remains a primarily lumped basin model, operating at
the divide scale, the divide view is the ideal viewed
realization. However, since we are not explicitly interested in
geometries here, we drop them.

read_sf(f, "divides") %>%
  select(divide_id, id) %>%
  st_drop_geometry()

## # A tibble: 419 × 2
##    divide_id  id       
##  * <chr>      <chr>    
##  1 cat-280570 wb-280570
##  2 cat-278676 wb-278676
##  3 cat-278680 wb-278680
##  4 cat-278682 wb-278682
##  5 cat-278683 wb-278683
##  6 cat-278686 wb-278686
##  7 cat-278689 wb-278689
##  8 cat-278692 wb-278692
##  9 cat-278693 wb-278693
## 10 cat-278695 wb-278695
## # ℹ 409 more rows

NOTE: Had we used SQLite directly to access
this layer, rather than reading the complete layer with sf,
we could have avoided reading the geometry column entirely.

read_sf(f, query = "SELECT divide_id, id FROM divides")

## # A tibble: 419 × 2
##    divide_id  id       
##    <chr>      <chr>    
##  1 cat-280570 wb-280570
##  2 cat-278676 wb-278676
##  3 cat-278680 wb-278680
##  4 cat-278682 wb-278682
##  5 cat-278683 wb-278683
##  6 cat-278686 wb-278686
##  7 cat-278689 wb-278689
##  8 cat-278692 wb-278692
##  9 cat-278693 wb-278693
## 10 cat-278695 wb-278695
## # ℹ 409 more rows
…
## [1] TRUE

visIgraph(g)

Much like the NOAH-OWP/CFE example, knowing the connectivity of the
flowpath network is half of the challenge. To successful route water
through it, a range of attributes need to be supplied. Currently, these
are provided within the flowpath_attributes layer of the
hydrofabric data model:

read_sf("poudre/poudre-subset.gpkg", "flowpath_attributes") %>%
  filter(id %in% unique(net$id))

## # A tibble: 419 × 16
##    id       rl_gages rl_NHDWaterbodyComID    Qi  MusK  MusX      n      So ChSlp
##    <chr>    <chr>    <chr>                <dbl> <dbl> <dbl>  <dbl>   <dbl> <dbl>
##  1 wb-2786… NA       NA                       0  3600   0.2 0.06   0.0197  0.517
##  2 wb-2786… NA       NA                       0  3600   0.2 0.06   0.0214  0.438
##  3 wb-2786… NA       NA                       0  3600   0.2 0.055  0.0167  0.402
##  4 wb-2786… NA       NA                       0  3600   0.2 0.055  0.0193  0.365
##  5 wb-2786… NA       NA                       0  3600   0.2 0.0563 0.0489  0.452
##  6 wb-2786… NA       NA                       0  3600   0.2 0.055  0.0407  0.348
##  7 wb-2786… NA       NA                       0  3600   0.2 0.055  0.0340  0.329
##  8 wb-2786… NA       NA                       0  3600   0.2 0.055  0.0286  0.328
##  9 wb-2786… NA       NA                       0  3600   0.2 0.0556 0.0148  0.459
## 10 wb-2786… NA       NA                       0  3600   0.2 0.055  0.00464 0.316
## # ℹ 409 more rows
## # ℹ 7 more variables: BtmWdth <dbl>, time <dbl>, Kchan <dbl>, nCC <dbl>,
## #   TopWdthCC <dbl>, TopWdth <dbl>, length_m <dbl>
…
mapview(div) + fp

Reporting (Task 4)

The last task is one that is NOT well facilitated by the existing NWM
and that is how do you find the locations of known Points of Interest
(POIs).

For example, lets say we wanted to find the USGS gages present in the
Poudre Basin. To do this we could search the hydrolocations view for
instances of type Gages.

(gages = filter(net, grepl("Gages", hl_uri)))

## # A tibble: 64 × 15
##    id     toid  divide_id ds_id mainstem hl_id hydroseq hl_uri hf_source   hf_id
##    <chr>  <chr> <chr>     <dbl>    <int> <chr>    <int> <chr>  <chr>       <dbl>
##  1 wb-27… nex-… cat-2786…    NA   352913 4447        NA Gages… NA             NA
##  2 wb-27… nex-… cat-2786…    NA   352913 4447     11598 Gages… NHDPlusV2 2899479
##  3 wb-27… nex-… cat-2786…    NA   352913 4447     11598 Gages… NHDPlusV2 2900683
##  4 wb-27… nex-… cat-2786…    NA   352913 4447     11598 Gages… NHDPlusV2 2899495
##  5 wb-27… nex-… cat-2786…    NA   352913 4447     11598 Gages… NHDPlusV2 2900705
##  6 wb-27… nex-… cat-2786…    NA   352913 4447     11598 Gages… NHDPlusV2 2900709
##  7 wb-28… nex-… cat-2805…    NA   376874 7845        NA Gages… NA             NA
##  8 wb-28… nex-… cat-2805…    NA   376874 7845     11527 Gages… NHDPlusV2 2898115
##  9 wb-28… nex-… cat-2805…    NA   376874 7845     11527 Gages… NHDPlusV2 2898115
## 10 wb-28… nex-… cat-2805…    NA   376874 7845     11527 Gages… NHDPlusV2 2898115
## # ℹ 54 more rows
## # ℹ 5 more variables: lengthkm <dbl>, areasqkm <dbl>,
## #   tot_drainage_areasqkm <dbl>, type <chr>, vpu <chr>
…
