Background • hydrofabric
…
# Read Complete Layer
(divides = read_sf(gpkg, "divides"))

## Simple feature collection with 1122 features and 5 fields
## Geometry type: POLYGON
## Dimension:     XY
## Bounding box:  xmin: -831675 ymin: 1975605 xmax: -757545 ymax: 2061555
## Projected CRS: NAD83 / Conus Albers
## # A tibble: 1,122 × 6
##    divide_id areasqkm has_flowline      id vpuid                            geom
##        <dbl>    <dbl> <lgl>          <dbl> <chr>                   <POLYGON [m]>
##  1   2896607   10.2   TRUE         2896607 10L   ((-779895 2037405, -779835 203…
##  2   2896609    5.08  TRUE         2896609 10L   ((-777075 2041155, -777255 204…
##  3   2897621    0.806 TRUE         2897621 10L   ((-789255 2035395, -789255 203…
##  4   2897627    2.52  TRUE         2897627 10L   ((-802665 2036685, -802755 203…
##  5   2897631    3.23  TRUE         2897631 10L   ((-796005 2034945, -795855 203…
##  6   2897671    1.42  TRUE         2897671 10L   ((-780525 2033175, -780435 203…
##  7   2897731    1.78  TRUE         2897731 10L   ((-776655 2032545, -776775 203…
##  8   2897785    2.93  TRUE         2897785 10L   ((-774765 2032095, -774855 203…
##  9   2897855    1.44  TRUE         2897855 10L   ((-783765 2029515, -783735 202…
## 10   2897893    2.86  TRUE         2897893 10L   ((-774105 2028195, -773985 202…
## # ℹ 1,112 more rows
…
